{
	"mongoEndpoint": "mongodb://localhost:27017/tripplanner", 
	"nomadCityEndpoint": "https://nomadlist.com/api/v2/list/cities/", 
	"nomadCountryEndpoint": "https://nomadlist.com/api/v2/list/countries/", 
	"fqBaseEndpoint": "https://api.foursquare.com/v2/", 
	"fqSearchVenueEndpoint": "venues/search/", 
	"fqExploreVenueEndpoint": "venues/explore/", 
	"fqBaseVars": {
		"client_id": "L4ZNVXSEF1APY3YFPFIAX4RXY4ZTOMCW4P1ILBSYW20IYIVZ", 
		"client_secret": "DMXT0CH445EM5WAVZDTBF52ABKHR3VRCA2RKCKWTARGO3X5W", 
		"v": "20160725"
	}, 
	"fbAppId": "1595912834044284", 
	"fbAppSecret": "8e45076eebe1c2f4711df2e8ea83972e", 
	"fbCallbackUrl" : "http://localhost:8080/login/facebook/callback"
}