<?xml version="1.0" encoding="UTF-8" standalone="no"?>
<svg width="13px" height="13px" viewBox="0 0 13 13" version="1.1" xmlns="http://www.w3.org/2000/svg" xmlns:xlink="http://www.w3.org/1999/xlink">
    <!-- Generator: Sketch 39.1 (31720) - http://www.bohemiancoding.com/sketch -->
    <title>Shape</title>
    <desc>Created with Sketch.</desc>
    <defs></defs>
    <g id="Page-1" stroke="none" stroke-width="1" fill="none" fill-rule="evenodd">
        <g id="OnboardingStepOne-Copy-3" transform="translate(-1113.000000, -459.000000)" fill="#D0011B">
            <g id="editItem" transform="translate(1089.000000, 359.000000)">
                <path d="M31.4106279,105.31625 L31.4106279,100.317244 C31.4106279,99.213244 31.421244,98.317244 30.317244,98.317244 C29.213244,98.317244 29.2835527,99.1407343 29.2835527,100.244734 L29.2835527,105.31625 L24.312244,105.31625 C23.208244,105.31625 22.312244,105.213244 22.312244,106.317244 C22.312244,107.421244 23.208244,107.403215 24.312244,107.403215 L29.2835527,107.403215 L29.2835527,112.317244 C29.2845527,113.421244 29.213244,114.317244 30.317244,114.317244 C31.421244,114.317244 31.4096279,113.421244 31.4106279,112.317244 L31.4106279,107.403215 L36.353356,107.403215 C37.457356,107.403215 38.322244,107.421244 38.322244,106.317244 C38.322244,105.213244 37.4764238,105.31625 36.353356,105.31625 L31.4106279,105.31625 Z" id="Shape" transform="translate(30.317244, 106.317244) rotate(45.000000) translate(-30.317244, -106.317244) "></path>
            </g>
        </g>
    </g>
</svg>